<svg xmlns="http://www.w3.org/2000/svg" xmlns:xlink="http://www.w3.org/1999/xlink" width="595.276" height="996.551" viewBox="0 0 595.276 996.551">
  <defs>
    <linearGradient id="linear-gradient" y1="0.5" x2="1" y2="0.5" gradientUnits="objectBoundingBox">
      <stop offset="0.006" stop-color="#421314"/>
      <stop offset="0.084" stop-color="#6f4b26"/>
      <stop offset="0.325" stop-color="#b1954f"/>
      <stop offset="0.47" stop-color="#fdf0c5"/>
      <stop offset="0.56" stop-color="#fdf0c5"/>
      <stop offset="0.765" stop-color="#b19469"/>
      <stop offset="0.803" stop-color="#a38358"/>
      <stop offset="0.955" stop-color="#8d5429"/>
    </linearGradient>
  </defs>
  <rect id="Rectangle_4" data-name="Rectangle 4" width="595.276" height="996.551" fill="url(#linear-gradient)"/>
</svg>
