<svg xmlns="http://www.w3.org/2000/svg" xmlns:xlink="http://www.w3.org/1999/xlink" width="240.256" height="269.249" viewBox="0 0 240.256 269.249">
  <defs>
    <filter id="Rectangle_69" x="0" y="0" width="240.256" height="269.249" filterUnits="userSpaceOnUse">
      <feOffset dx="5.669" dy="5.669" input="SourceAlpha"/>
      <feGaussianBlur stdDeviation="2.835" result="blur"/>
      <feFlood flood-color="#231815" flood-opacity="0.749"/>
      <feComposite operator="in" in2="blur"/>
      <feComposite in="SourceGraphic"/>
    </filter>
  </defs>
  <g id="sns-box" transform="translate(-63.952 -7514.755)">
    <g transform="matrix(1, 0, 0, 1, 63.95, 7514.76)" filter="url(#Rectangle_69)">
      <rect id="Rectangle_69-2" data-name="Rectangle 69" width="223.248" height="252.241" transform="translate(2.83 2.83)" fill="#fff"/>
    </g>
    <rect id="Rectangle_70" data-name="Rectangle 70" width="194.901" height="169.448" transform="translate(80.96 7531.763)" fill="#fff" stroke="#231815" stroke-miterlimit="10" stroke-width="0.283"/>
    <g id="Group_112" data-name="Group 112">
      <path id="Path_204" data-name="Path 204" d="M92.992,7759.282c12.7-4.514,13.819-14.638,10.308-18.912-2.965-3.608-8.469-2.242-10.308,1.262-1.839-3.5-7.344-4.87-10.308-1.262C79.173,7744.644,80.29,7754.768,92.992,7759.282Z" fill="none" stroke="#767777" stroke-linecap="round" stroke-linejoin="round" stroke-width="1.656"/>
    </g>
    <g id="Group_113" data-name="Group 113">
      <path id="Path_205" data-name="Path 205" d="M251.479,7750.564c3.449-1.452,24.382-11.586,24.382-11.586l-6.429,18.93a.748.748,0,0,1-1.064.417l-10.967-5.939-5.9-1.543A.147.147,0,0,1,251.479,7750.564Z" fill="none" stroke="#767777" stroke-linecap="round" stroke-linejoin="round" stroke-width="1.656"/>
      <path id="Path_206" data-name="Path 206" d="M261.4,7757.582l-.917.888a.284.284,0,0,1-.454-.085l-2.816-6.092,18.649-13.315" fill="none" stroke="#767777" stroke-linecap="round" stroke-linejoin="round" stroke-width="1.656"/>
    </g>
    <g id="Group_114" data-name="Group 114">
      <circle id="Ellipse_25" data-name="Ellipse 25" cx="0.939" cy="0.939" r="0.939" transform="translate(224.571 7746.179)" fill="#767777"/>
      <circle id="Ellipse_26" data-name="Ellipse 26" cx="0.939" cy="0.939" r="0.939" transform="translate(229.793 7746.179)" fill="#767777"/>
      <circle id="Ellipse_27" data-name="Ellipse 27" cx="0.939" cy="0.939" r="0.939" transform="translate(235.015 7746.179)" fill="#767777"/>
      <path id="Path_207" data-name="Path 207" d="M238.705,7739.192H223.422a3.986,3.986,0,0,0-3.975,3.974v7.9a3.986,3.986,0,0,0,3.975,3.974h.942v3.291l3.291-3.291h11.05a3.985,3.985,0,0,0,3.974-3.974v-7.9A3.985,3.985,0,0,0,238.705,7739.192Z" fill="none" stroke="#767777" stroke-linecap="round" stroke-linejoin="round" stroke-width="1.656"/>
    </g>
    <text id="_タイトルが入ります" data-name="# タイトルが入ります" transform="translate(80.96 7722.913)" fill="#231815" font-size="14" font-family="SegoeUI, Segoe UI"><tspan x="0" y="0"># </tspan><tspan y="0" font-family="YuGothicUI-Regular, Yu Gothic UI">タイトルが入ります</tspan></text>
  </g>
</svg>
