<svg xmlns="http://www.w3.org/2000/svg" xmlns:xlink="http://www.w3.org/1999/xlink" width="48.423" height="48.421" viewBox="0 0 48.423 48.421">
  <defs>
    <radialGradient id="radial-gradient" cx="0.983" cy="0.874" r="1.117" gradientTransform="translate(0)" gradientUnits="objectBoundingBox">
      <stop offset="0.069" stop-color="#86b9e5"/>
      <stop offset="0.151" stop-color="#67a8db"/>
      <stop offset="0.312" stop-color="#2081c7"/>
      <stop offset="0.578" stop-color="#0056a5"/>
      <stop offset="0.684" stop-color="#034487"/>
      <stop offset="0.85" stop-color="#082d5e"/>
      <stop offset="0.936" stop-color="#0a244f"/>
    </radialGradient>
  </defs>
  <path id="campaign-circle" d="M475.347,741.277a24.211,24.211,0,1,1-24.212-24.21A24.211,24.211,0,0,1,475.347,741.277Z" transform="translate(-426.924 -717.067)" fill="url(#radial-gradient)"/>
</svg>
